…
-   `proust_*()` functions return data objects (books, characters, stop words, random Proust extract...)

-   `pr_*()` functions perform actions on the data. `pr` is short for p(roust)r, pr(oust), p(rocessing f)r(ench), or anything you can think of :). This shortcode refers to functions like `pr_clean_punc()`.

`proust_*()` functions
----------------------

### `proust_books()`

Get the tibble with all the books :

``` r
library(proustr)
proust_books()
#> # A tibble: 4,690 x 4
#>                                                                           text
#>  *                                                                       <chr>
#>  1 "Longtemps, je me suis couché de bonne heure. Parfois, à peine ma bougie ét
#>  2 J'appuyais tendrement mes joues contre les belles joues de l'oreiller qui, 
#>  3 Je me rendormais, et parfois je n'avais plus que de courts réveils d'un ins
#>  4 Quelquefois, comme Ève naquit d'une côte d'Adam, une femme naissait pendant
#>  5 Un homme qui dort tient en cercle autour de lui le fil des heures, l'ordre 
#>  6 "Peut-être l'immobilité des choses autour de nous leur est-elle imposée par
#>  7 Puis renaissait le souvenir d'une nouvelle attitude ; le mur filait dans un
#>  8 Ces évocations tournoyantes et confuses ne duraient jamais que quelques sec
#>  9 Certes, j'étais bien éveillé maintenant : mon corps avait viré une dernière
#> 10 "À Combray, tous les jours dès la fin de l'après-midi, longtemps avant le m
#> # ... with 4,680 more rows, and 3 more variables: book <chr>,
#> #   volume <chr>, year <dbl>
```

### `proust_characters()`

`proust_characters` returns a tibble with each characters from the books.

``` r
proust_characters()
#> # A tibble: 461 x 1
#>              perso
#>  *           <chr>
#>  1            A.J.
#>  2    Académicien 
#>  3        Adolphe 
#>  4      Agrigente 
#>  5      Agrigente 
#>  6            Aimé
#>  7 Albaret Céleste
#>  8          Albert
#>  9       Albertine
#> 10           Albon
#> # ... with 451 more rows
```
…
### `proust_stopwords()`

You can get a tibble of stopwords with:

``` r
proust_stopwords()
```

### `proust_sentiments()`

Sentiment lexicon is launched with:

``` r
proust_sentiments()
#> # A tibble: 14,127 x 2
#>               word polarity
#>  *           <chr>    <chr>
#>  1 à ce endroit là positive
#>  2       à le hâte negative
#>  3          à part negative
#>  4           à pic negative
#>  5      à rallonge negative
#>  6      abasourdir negative
#>  7        ablation negative
#>  8      abominable negative
#>  9          abrupt negative
#> 10          absent negative
#> # ... with 14,117 more rows
```
…
