Normalize punctuation — pr_normalize_punc • proustr
…
      df
      a dataframe

      col
      the column to normalize

    Value

    a tibble with normalized text

    Examples

a <- proustr::albertinedisparue[1:20,]
pr_normalize_punc(albertinedisparue, text)
#> # A tibble: 259 x 4
#>    text                                            book          volume    year
#>  * <chr>                                           <chr>         <chr>    <dbl>
#>  1 "Mademoiselle Albertine est partie ! Comme la … Albertine di… Tome Un…  1925
#>  2 Le plus pressé était de lire la lettre d'Alber… Albertine di… Tome Un…  1925
#>  3 "\" Pardonnez-moi de ne pas avoir osé vous dir… Albertine di… Tome Un…  1925
#>  4 "\" Tout cela ne signifie rien, me dis-je, c'e… Albertine di… Tome Un…  1925
#>  5 "Ce malheur était le plus grand de toute ma vi… Albertine di… Tome Un…  1925
#>  6 "En me promettant à moi-même qu'Albertine sera… Albertine di… Tome Un…  1925
#>  7 "La souffrance, prolongement d'un choc moral i… Albertine di… Tome Un…  1925
#>  8 "L'esprit dans lequel Albertine était partie é… Albertine di… Tome Un…  1925
#>  9 Quant aux moyens de ramener Albertine, ils ava… Albertine di… Tome Un…  1925
#> 10 "Je reconnais que dans tout cela je fus le plu… Albertine di… Tome Un…  1925
#> # ... with 249 more rows
…
